[
    {
        "outputFileName": "wwwroot/static/site.min.css",
        // An array of relative input file paths. Globbing patterns supported
        "inputFiles": [
            "wwwroot/static/styles/site.css"
        ]
    },
    {
        "outputFileName": "wwwroot/static/site.min.js",
        "inputFiles": [
            "wwwroot/static/jscripts/site.js"
        ],
        // Optionally specify minification options
        "minify": {
            "enabled": true,
            "renameLocals": true
        },
        // Optionally generate .map file
        "sourceMap": false
    }
]
